<?xml version="1.0" encoding="utf-8"?>
<!-- Generator: Adobe Illustrator 16.0.0, SVG Export Plug-In . SVG Version: 6.00 Build 0)  -->
<!DOCTYPE svg PUBLIC "-//W3C//DTD SVG 1.1//EN" "http://www.w3.org/Graphics/SVG/1.1/DTD/svg11.dtd">
<svg version="1.1" id="Capa_2" xmlns="http://www.w3.org/2000/svg" xmlns:xlink="http://www.w3.org/1999/xlink" x="0px" y="0px"
	 width="1275.191px" height="400.005px" viewBox="0 0 1275.191 400.005" enable-background="new 0 0 1275.191 400.005"
	 xml:space="preserve">
<g>
	<g>
		<g>
			<path fill="#E37222" d="M299.888,0C96.184,5.949-69.587,204.953,86.751,300.828c11.621-64.168,21.489-116.051,87.124-165.601
				c-24.367,33.398-63.224,85.542-74.087,173.361c67.824,97.816,182.51-22.775,165.355-118.153
				C241.609,55.628,297.778,13.894,299.888,0z"/>
			<path fill="#E37222" d="M98.729,312.809C97.389,350.633,36.692,400,34.187,400H0c33.075-54.639,81.118-42.875,85.864-95.854
				C88.493,315.086,93.765,315.158,98.729,312.809z"/>
		</g>
	</g>
	<g>
		<path fill="#FFFFFF" d="M456.98,168.204c-1.526-10.349-5.409-17.889-11.65-22.611c-6.249-4.718-15.76-7.081-28.554-7.081
			c-12.188,0-21.401,1.442-27.645,4.342c-6.244,2.89-9.36,7.839-9.36,14.844c0,6.098,3.117,10.968,9.36,14.619
			c6.244,3.655,15.311,7.158,27.186,10.512c19.492,5.478,35.938,10.124,49.344,13.934c13.398,3.809,24.135,8.297,32.208,13.476
			c8.067,5.185,13.856,11.644,17.36,19.413c3.5,7.77,5.256,18.207,5.256,31.305c0,20.094-8.382,36.768-25.128,50.021
			c-16.752,13.25-41.577,19.877-74.47,19.877c-16.147,0-30.766-1.826-43.859-5.486c-13.1-3.654-24.295-8.908-33.582-15.764
			c-9.293-6.852-16.449-15.076-21.472-24.674c-5.024-9.588-7.694-20.324-7.995-32.203H375.2c0,10.664,4.184,18.885,12.564,24.672
			c8.373,5.785,19.262,8.674,32.664,8.674c11.267,0,20.941-1.746,29.015-5.252c8.067-3.492,12.105-8.904,12.105-16.215
			c0-8.225-2.969-14.164-8.906-17.822c-5.942-3.65-15.006-6.852-27.183-9.592c-21.93-4.871-39.599-9.969-52.998-15.311
			c-13.408-5.326-23.838-11.182-31.295-17.581c-7.466-6.396-12.492-13.403-15.078-21.02c-2.588-7.61-3.885-16.138-3.885-25.583
			c0-8.526,1.753-16.597,5.258-24.211c3.495-7.607,9.055-14.315,16.674-20.109c7.607-5.774,17.509-10.42,29.695-13.93
			c12.179-3.5,27.108-5.253,44.772-5.253c32.283,0,55.887,6.552,70.814,19.645c14.923,13.095,23.145,31.223,24.671,54.365H456.98z"
			/>
		<path fill="#FFFFFF" d="M544.425,73.178V17.896h59.394v55.282H544.425z M544.425,324.908V100.131h59.394v224.777H544.425z"/>
		<path fill="#FFFFFF" d="M704.113,324.908l-80.415-224.777h66.247l47.059,148.484l47.514-148.484h62.586l-80.857,224.777H704.113z"
			/>
		<path fill="#FFFFFF" d="M993.842,168.204c-1.531-10.349-5.402-17.889-11.65-22.611c-6.244-4.718-15.766-7.081-28.563-7.081
			c-12.178,0-21.393,1.442-27.637,4.342c-6.242,2.89-9.367,7.839-9.367,14.844c0,6.098,3.125,10.968,9.367,14.619
			c6.244,3.655,15.307,7.158,27.195,10.512c19.482,5.478,35.932,10.124,49.342,13.934c13.393,3.809,24.123,8.297,32.195,13.476
			c8.07,5.185,13.869,11.644,17.367,19.413s5.254,18.207,5.254,31.305c0,20.094-8.373,36.768-25.129,50.021
			c-16.754,13.25-41.566,19.877-74.475,19.877c-16.137,0-30.758-1.826-43.85-5.486c-13.1-3.654-24.295-8.908-33.576-15.764
			c-9.297-6.852-16.459-15.076-21.479-24.674c-5.033-9.588-7.693-20.324-7.998-32.203h61.23c0,10.664,4.182,18.885,12.555,24.672
			c8.377,5.785,19.268,8.674,32.672,8.674c11.264,0,20.938-1.746,29.004-5.252c8.072-3.492,12.115-8.904,12.115-16.215
			c0-8.225-2.973-14.164-8.92-17.822c-5.941-3.65-14.998-6.852-27.18-9.592c-21.928-4.871-39.596-9.969-52.992-15.311
			c-13.41-5.326-23.836-11.182-31.291-17.581c-7.473-6.396-12.506-13.403-15.084-21.02c-2.594-7.61-3.891-16.138-3.891-25.583
			c0-8.526,1.756-16.597,5.258-24.211c3.498-7.607,9.057-14.315,16.684-20.109c7.607-5.774,17.506-10.42,29.688-13.93
			c12.182-3.5,27.109-5.253,44.783-5.253c32.27,0,55.881,6.552,70.809,19.645c14.928,13.095,23.139,31.223,24.668,54.365H993.842z"
			/>
		<path fill="#FFFFFF" d="M1219.91,324.908c-1.822-5.779-3.053-12.484-3.654-20.1c-7.01,7.924-16.301,14.234-27.875,18.967
			c-11.578,4.711-24.975,7.078-40.199,7.078c-25.898,0-44.85-5.715-56.881-17.131c-12.043-11.43-18.053-26.277-18.053-44.549
			c0-16.143,2.58-29.014,7.766-38.609c5.191-9.598,12.334-17.129,21.482-22.611c9.129-5.479,20.014-9.517,32.652-12.105
			c12.646-2.588,26.43-4.951,41.357-7.083c14.914-2.125,24.965-4.95,30.146-8.452c5.172-3.502,7.766-9.208,7.766-17.133
			c0-7.311-3.416-13.023-10.271-17.135c-6.861-4.112-16.076-6.16-27.641-6.16c-13.703,0-23.529,3.046-29.467,9.136
			c-5.938,6.088-9.67,14.16-11.191,24.207h-55.293c0.307-11.564,2.219-22.231,5.717-31.977c3.492-9.746,9.143-18.119,16.908-25.128
			c7.76-7,17.879-12.409,30.381-16.222c12.479-3.804,27.707-5.708,45.678-5.708c17.674,0,32.672,1.986,45.012,5.938
			c12.334,3.959,22.229,9.674,29.697,17.131c7.459,7.473,12.85,16.76,16.209,27.872c3.35,11.119,5.029,23.686,5.029,37.694v142.081
			H1219.91z M1215.795,214.802c-3.047,3.052-7.467,5.483-13.252,7.308c-5.785,1.834-14.162,3.818-25.129,5.947
			c-17.064,3.352-28.781,7.617-35.17,12.789c-6.396,5.188-9.602,12.641-9.602,22.387c0,16.758,9.602,25.127,28.787,25.127
			c7.607,0,14.684-1.287,21.238-3.879c6.545-2.59,12.182-6.094,16.904-10.512c4.727-4.412,8.529-9.594,11.43-15.531
			c2.889-5.941,4.34-12.254,4.34-18.959L1215.795,214.802z"/>
	</g>
</g>
</svg>
