<?xml version="1.0" encoding="utf-8"?>
<!-- Generator: Adobe Illustrator 16.0.0, SVG Export Plug-In . SVG Version: 6.00 Build 0)  -->
<!DOCTYPE svg PUBLIC "-//W3C//DTD SVG 1.1//EN" "http://www.w3.org/Graphics/SVG/1.1/DTD/svg11.dtd">
<svg version="1.1" id="Capa_1" xmlns="http://www.w3.org/2000/svg" xmlns:xlink="http://www.w3.org/1999/xlink" x="0px" y="0px"
	 width="141.73px" height="226.77px" viewBox="0 0 141.73 226.77" enable-background="new 0 0 141.73 226.77" xml:space="preserve">
<path fill="#FFFFFF" d="M59.792,42.52c-3.643,0-6.644,3.001-6.644,6.644V62.45h-6.644c-3.644,0-6.644,3-6.644,6.644
	c0,0.59,0.235,1.154,0.653,1.57c0.781,2.8,2.957,5.073,5.991,5.073h0.151c-2.88,4.476-4.581,9.789-4.581,15.502
	c0,5.882,1.808,11.343,4.84,15.896c-0.258,0.559-0.411,1.172-0.411,1.821v8.857c0,0.015,0,0.029,0,0.044v0.1
	c-2.201,1.872-4.185,3.991-5.908,6.318l-11.808-11.808v-16.8c0.017-1.223-0.961-2.228-2.184-2.244c-0.022-0.001-0.043-0.001-0.065,0
	c-1.222,0.019-2.197,1.023-2.18,2.244v12.371l-9.507-9.507c-0.417-0.429-0.989-0.671-1.587-0.671c-1.223,0-2.214,0.992-2.214,2.216
	c0,0.597,0.242,1.169,0.67,1.586l13.092,13.093c0.122,0.16,0.264,0.303,0.424,0.424l12.885,12.885
	c-3.115,5.474-4.905,11.798-4.905,18.538c0,19.643,15.108,35.786,34.316,37.479c0.26,0.107,0.541,0.169,0.839,0.169h44.567
	c1.225,0,2.215-0.992,2.215-2.215c0-1.222-0.99-2.214-2.215-2.214H88.547c11.869-6.341,19.965-18.843,19.965-33.219
	c0-6.741-1.785-13.073-4.9-18.547l12.89-12.885c0.158-0.12,0.3-0.262,0.42-0.419l13.088-13.089c0.878-0.853,0.897-2.255,0.044-3.132
	c-0.432-0.445-1.032-0.688-1.652-0.67c-0.576,0.018-1.121,0.258-1.523,0.671l-9.506,9.507V95.668
	c0.016-1.223-0.962-2.228-2.185-2.244c-0.022-0.001-0.044-0.001-0.065,0c-1.221,0.019-2.196,1.023-2.18,2.244v16.8l-11.804,11.804
	c-1.727-2.332-3.72-4.452-5.925-6.328c0-0.044,0.012-0.085,0.012-0.13v-8.857c0-0.649-0.152-1.263-0.41-1.821
	c3.031-4.553,4.84-10.014,4.84-15.896c0-5.713-1.7-11.026-4.58-15.502h0.15c3.035,0,5.21-2.273,5.991-5.073
	c0.418-0.416,0.653-0.98,0.653-1.57c0-3.644-3-6.644-6.645-6.644h-6.643V49.163c0-3.643-3.002-6.644-6.645-6.644H59.792z
	 M59.792,46.948h22.145c1.252,0,2.215,0.964,2.215,2.215V62.45H57.578V49.163C57.578,47.912,58.542,46.948,59.792,46.948z
	 M46.505,66.88h48.719c1.229,0,2.215,0.986,2.215,2.214c0,1.229-0.986,2.215-2.215,2.215H46.505c-1.228,0-2.215-0.986-2.215-2.215
	C44.291,67.866,45.277,66.88,46.505,66.88z M52.292,75.738h37.145c3.537,4.23,5.787,9.558,5.787,15.502
	c0,4.968-1.65,9.459-4.208,13.309c-0.074-0.004-0.146-0.021-0.221-0.021H50.935c-0.075,0-0.146,0.018-0.221,0.021
	c-2.557-3.85-4.208-8.341-4.208-13.309C46.505,85.295,48.755,79.968,52.292,75.738z M60.9,80.167c-1.834,0-3.322,1.487-3.322,3.321
	c0,1.835,1.487,3.322,3.322,3.322s3.322-1.487,3.322-3.322C64.222,81.655,62.734,80.167,60.9,80.167z M80.83,80.167
	c-1.834,0-3.321,1.487-3.321,3.321c0,1.835,1.487,3.322,3.321,3.322c1.835,0,3.322-1.487,3.322-3.322
	C84.152,81.655,82.665,80.167,80.83,80.167z M70.865,86.811c-3.643,0-6.644,3.001-6.644,6.644s3,6.644,6.644,6.644
	c2.953,0,6.264-1.229,9.127-2.375c2.861-1.145,5.15-2.288,5.15-2.288c1.094-0.547,1.538-1.877,0.99-2.971
	c-0.213-0.429-0.561-0.776-0.99-0.991c0,0-2.289-1.143-5.15-2.288C77.129,88.04,73.818,86.811,70.865,86.811z M70.865,91.24
	c1.477,0,4.809,0.985,7.482,2.055c0.199,0.08,0.166,0.081,0.359,0.16c-0.193,0.079-0.16,0.08-0.359,0.16
	c-2.674,1.069-6.006,2.054-7.482,2.054c-1.251,0-2.214-0.963-2.214-2.214C68.651,92.202,69.614,91.24,70.865,91.24z M51,108.956
	H90.73c0.006,0.004,0.006,0.007,0.044,0.034c0.007,0.005,0.015,0.009,0.021,0.013v8.771c-0.005,0.008-0.009,0.015-0.013,0.022
	c-0.018,0.034,0.012,0.017,0.013,0.017h-26.12h-4.883c-1.223-0.017-2.229,0.961-2.246,2.184c-0.018,1.223,0.96,2.229,2.183,2.246
	c0.021,0,0.042,0,0.063,0h1.752c-0.968,2.567-2.051,4.768-2.967,8.3c0,0.002,0,0.003,0,0.005c-0.838,3.235-1.159,8.046-0.29,13.841
	H47.206c-0.944-5.517-0.59-9.833,0.16-12.729v-0.005c0.914-3.521,2.301-5.75,3.464-9.407c0.071-0.218,0.107-0.445,0.108-0.675
	v-2.206c0.055-0.284,0.053-0.576-0.004-0.86V115.6v-6.597c0.007-0.004,0.014-0.008,0.021-0.013
	C50.994,108.963,50.994,108.96,51,108.956z M92.69,121.793c2.36,2.076,4.415,4.481,6.124,7.124c0.063,0.109,0.133,0.214,0.213,0.312
	c3.18,5.036,5.057,10.956,5.057,17.374c0,18.373-14.846,33.219-33.219,33.219s-33.218-14.846-33.218-33.219
	c0-6.28,1.774-12.119,4.801-17.115c0.337-0.292,0.579-0.68,0.692-1.111c0.379-0.573,0.785-1.126,1.198-1.674
	c-0.445,1.146-0.88,2.365-1.263,3.841c0,0.002,0,0.003,0,0.005c-0.976,3.767-1.629,9.321-0.017,16.539
	c0.227,1.013,1.125,1.731,2.163,1.73h15.502c1.223,0.001,2.215-0.99,2.216-2.213c0-0.164-0.018-0.327-0.053-0.486
	c-1.453-6.506-0.853-11.232-0.018-14.459v-0.005c0.907-3.495,2.3-5.838,3.435-9.411h24.494
	C91.475,122.243,92.112,122.073,92.69,121.793z M88.616,127.641c-1.223-0.033-2.241,0.931-2.274,2.153
	c-0.018,0.596,0.207,1.173,0.622,1.602c3.749,3.968,6.047,9.307,6.047,15.207c0,5.364-1.897,10.261-5.061,14.092
	c-0.778,0.943-0.646,2.34,0.298,3.119c0.943,0.778,2.34,0.645,3.119-0.299c3.791-4.593,6.072-10.499,6.072-16.912
	c0-7.054-2.76-13.491-7.254-18.248C89.781,127.914,89.215,127.657,88.616,127.641z M21.804,128.912
	c-0.852,0.135-1.587,0.766-1.808,1.652c-0.294,1.181,0.431,2.392,1.613,2.687l4.299,1.068c1.181,0.294,2.387-0.427,2.682-1.609
	c0.295-1.183-0.428-2.392-1.609-2.686l-4.299-1.073C22.387,128.878,22.087,128.867,21.804,128.912z M20.052,139.847
	c-1.215-0.064-2.263,0.878-2.327,2.094c-0.064,1.216,0.877,2.263,2.093,2.327l4.42,0.233c1.216,0.064,2.263-0.878,2.327-2.094
	c0.064-1.218-0.878-2.265-2.094-2.327L20.052,139.847z M24.131,151.045l-4.408,0.463c-1.211,0.126-2.094,1.22-1.968,2.431
	c0.126,1.211,1.219,2.099,2.431,1.973l4.407-0.463c1.211-0.127,2.094-1.224,1.968-2.436
	C26.433,151.802,25.34,150.919,24.131,151.045z M26.492,162.105c-0.287,0.01-0.576,0.079-0.852,0.208l-4.014,1.868
	c-1.105,0.516-1.586,1.843-1.073,2.945c0.516,1.105,1.838,1.587,2.941,1.073l4.019-1.873c1.105-0.516,1.582-1.843,1.068-2.945
	C28.194,162.552,27.354,162.075,26.492,162.105z M81.925,166.079c-0.347,0.007-0.688,0.094-0.995,0.256
	c-0.649,0.333-1.324,0.637-2.011,0.903c-2.495,0.975-5.208,1.51-8.054,1.51c-1.223-0.018-2.229,0.96-2.246,2.184
	c-0.018,1.223,0.96,2.229,2.183,2.246c0.021,0,0.042,0,0.063,0c3.402,0,6.666-0.643,9.662-1.813
	c0.828-0.322,1.633-0.684,2.418-1.086c1.098-0.542,1.547-1.87,1.004-2.967C83.57,166.545,82.781,166.065,81.925,166.079z
	 M32.548,170.981c-0.563-0.069-1.155,0.074-1.635,0.449l-3.49,2.726c-0.959,0.75-1.131,2.15-0.381,3.109
	c0.751,0.959,2.151,1.132,3.11,0.381l3.491-2.726c0.959-0.75,1.131-2.15,0.38-3.109C33.647,171.331,33.111,171.049,32.548,170.981z
	 M121.8,179.822c-1.225,0-2.215,0.992-2.215,2.214c0,1.223,0.99,2.215,2.215,2.215h8.858c1.225,0,2.215-0.992,2.215-2.215
	c0-1.222-0.99-2.214-2.215-2.214H121.8z"/>
</svg>
